…
<br /><br />


## Selecting a Subset and Renaming Columns

To select a subset of columns, we will use the `select()` function. The argument(s) for this function are the column names of the data frame that you want to select. For example, to select the `education`, `income`, and `gender` columns from the `city` data frame we would use the following syntax:


```r
city %>% 
  select(education, income, gender)
```

```
# A tibble: 32 x 3
   education income gender
       <dbl>  <dbl> <chr> 
 1         8   37.4 male  
 2         8   26.4 female
 3        10   47.0 male  
 4        10   34.2 female
 5        10   25.5 female
 6        12   46.5 female
 7        12   37.7 male  
 8        12   50.3 male  
 9        12   52.5 female
10        14   32.6 female
# … with 22 more rows
```

There are a number of helper functions you can use within the `select()` function. For example, `starts_with()`, `ends_with()`, and `contains()`. These let you quickly match larger blocks of columns that meet some criterion. The syntax below selects all the columns that have a column name that ends in 'e'.



```r
city %>% 
  select(ends_with("e"))
```

```
# A tibble: 32 x 2
   income  male
    <dbl> <dbl>
 1   37.4     1
 2   26.4     0
 3   47.0     1
 4   34.2     0
 5   25.5     0
 6   46.5     0
 7   37.7     1
 8   50.3     1
 9   52.5     0
10   32.6     0
# … with 22 more rows
```
…
### Renaming Columns

You can rename a column by using the `rename()` function. Here we select the `education`, `income`, and `gender` columns from the `city` data frame and then rename the `education` column to `educ`. Note that this works similar to assignment in that the new column name is to the left of the equal sign.


```r
city %>% 
  select(education, income, gender) %>%
  rename(educ = education)
```

```
# A tibble: 32 x 3
    educ income gender
   <dbl>  <dbl> <chr> 
 1     8   37.4 male  
 2     8   26.4 female
 3    10   47.0 male  
 4    10   34.2 female
 5    10   25.5 female
 6    12   46.5 female
 7    12   37.7 male  
 8    12   50.3 male  
 9    12   52.5 female
10    14   32.6 female
# … with 22 more rows
```
…
## Create New Columns: Mutating

To create new columns, we will use the `mutate()` function. Here we create a new column called `income2` based on multiplying the original `income` column by 1000.


```r
city %>% 
  mutate(
    income2 = income * 1000
    )
```

```
# A tibble: 32 x 7
   education income seniority gender  male party       income2
       <dbl>  <dbl>     <dbl> <chr>  <dbl> <chr>         <dbl>
 1         8   37.4         7 male       1 Democrat      37449
 2         8   26.4         9 female     0 Independent   26430
 3        10   47.0        14 male       1 Democrat      47034
 4        10   34.2        16 female     0 Independent   34182
 5        10   25.5         1 female     0 Republican    25479
 6        12   46.5        11 female     0 Democrat      46488
 7        12   37.7        14 male       1 Democrat      37656
 8        12   50.3        24 male       1 Democrat      50265
 9        12   52.5        16 female     0 Independent   52480
10        14   32.6         5 female     0 Independent   32631
# … with 22 more rows
```
…
You can create multiple new columns within the same `mutate()` function. Simply include each new column as an argument. Below we again create `income2`, but we also additionally create `cent_educ` which computes the difference between each employee's education level and the mean education level.


```r
city %>% 
  mutate(
    income2 = income * 1000,
    cent_educ = education - mean(education)
    )
```

```
# A tibble: 32 x 8
   education income seniority gender  male party       income2 cent_educ
       <dbl>  <dbl>     <dbl> <chr>  <dbl> <chr>         <dbl>     <dbl>
 1         8   37.4         7 male       1 Democrat      37449        -8
 2         8   26.4         9 female     0 Independent   26430        -8
 3        10   47.0        14 male       1 Democrat      47034        -6
 4        10   34.2        16 female     0 Independent   34182        -6
 5        10   25.5         1 female     0 Republican    25479        -6
 6        12   46.5        11 female     0 Democrat      46488        -4
 7        12   37.7        14 male       1 Democrat      37656        -4
 8        12   50.3        24 male       1 Democrat      50265        -4
 9        12   52.5        16 female     0 Independent   52480        -4
10        14   32.6         5 female     0 Independent   32631        -2
# … with 22 more rows
```
<br /><br />


## Sorting the Data: Arranging

The `arrange()` function sorts the data based on the values within one or more specified columns. The data is ordered based on the column name provided in the argument(s). The syntax below sorts the rows in the `city` data frame from smallest to largest income.


```r
city %>% 
  arrange(income)
```

```
# A tibble: 32 x 6
   education income seniority gender  male party      
       <dbl>  <dbl>     <dbl> <chr>  <dbl> <chr>      
 1        10   25.5         1 female     0 Republican 
 2         8   26.4         9 female     0 Independent
 3        14   32.6         5 female     0 Independent
 4        10   34.2        16 female     0 Independent
 5        15   37.3         8 female     0 Democrat   
 6         8   37.4         7 male       1 Democrat   
 7        12   37.7        14 male       1 Democrat   
 8        16   38.6        11 female     0 Independent
 9        12   46.5        11 female     0 Democrat   
10        10   47.0        14 male       1 Democrat   
# … with 22 more rows
```

Providing the `arrange()` function multiple arguments sort initially by the column name given in first argument, and then by the columns given in subsequent arguments. Here the data are sorted first by gender (alphabetically since `gender` is a character string) and then by income (lowest to highest).


```r
city %>% 
  arrange(gender, income)
```

```
# A tibble: 32 x 6
   education income seniority gender  male party      
       <dbl>  <dbl>     <dbl> <chr>  <dbl> <chr>      
 1        10   25.5         1 female     0 Republican 
 2         8   26.4         9 female     0 Independent
 3        14   32.6         5 female     0 Independent
 4        10   34.2        16 female     0 Independent
 5        15   37.3         8 female     0 Democrat   
 6        16   38.6        11 female     0 Independent
 7        12   46.5        11 female     0 Democrat   
 8        12   52.5        16 female     0 Independent
 9        20   54.7        12 female     0 Independent
10        18   54.8        20 female     0 Republican 
# … with 22 more rows
```

Use the `desc()` function on a column name to sort the data in descending order. Here the data are sorted first by gender (alphabetically since `gender` is a character string) and then by income. Here the data are sorted first by gender (alphabetically) and then by income (highest to lowest).


```r
city %>% 
  arrange(gender, desc(income))
```

```
# A tibble: 32 x 6
   education income seniority gender  male party      
       <dbl>  <dbl>     <dbl> <chr>  <dbl> <chr>      
 1        21   71.2        26 female     0 Democrat   
 2        18   62.5        16 female     0 Republican 
 3        17   60.1        10 female     0 Independent
 4        16   59.5        20 female     0 Independent
 5        20   56.3        22 female     0 Independent
 6        22   56.3         8 female     0 Independent
 7        19   56.0        21 female     0 Independent
 8        16   55.9        22 female     0 Independent
 9        18   54.8        20 female     0 Republican 
10        20   54.7        12 female     0 Independent
# … with 22 more rows
```
…
