Data Wrangling with dplyr | Computational Toolkit for Educational Scientists
…
This syntax would select any employee that is either female OR has an education less than 12 years.

Selecting a Subset and Renaming Columns

To select a subset of columns, we will use the select() function. The argument(s) for this function are the column names of the data frame that you want to select. For example, to select the education, income, and gender columns from the city data frame we would use the following syntax:

city %>% 
  select(education, income, gender)

# A tibble: 32 x 3
   education income gender    
       <dbl>  <dbl> <chr>     
 1         8   26.4 female    
 2         8   37.4 Not female
 3        10   34.2 female    
 4        10   25.5 female    
 5        10   47.0 Not female
 6        12   46.5 female    
 7        12   52.5 female    
 8        12   37.7 Not female
 9        12   50.3 Not female
10        14   32.6 female    
# … with 22 more rows

There are a number of helper functions you can use within the select() function. For example, starts_with(), ends_with(), and contains(). These let you quickly match larger blocks of columns that meet some criterion. The syntax below selects all the columns that have a column name that ends in ‘e’.

city %>% 
  select(ends_with("e"))

# A tibble: 32 x 1
   income
    <dbl>
 1   26.4
 2   37.4
 3   34.2
 4   25.5
 5   47.0
 6   46.5
 7   52.5
 8   37.7
 9   50.3
10   32.6
# … with 22 more rows

Renaming Columns

You can rename a column by using the rename() function. Here we select the education, income, and gender columns from the city data frame and then rename the education column to educ. Note that this works similar to assignment in that the new column name is to the left of the equal sign.

city %>% 
  select(education, income, gender) %>%
  rename(educ = education)

# A tibble: 32 x 3
    educ income gender    
   <dbl>  <dbl> <chr>     
 1     8   26.4 female    
 2     8   37.4 Not female
 3    10   34.2 female    
 4    10   25.5 female    
 5    10   47.0 Not female
 6    12   46.5 female    
 7    12   52.5 female    
 8    12   37.7 Not female
 9    12   50.3 Not female
10    14   32.6 female    
# … with 22 more rows

Create New Columns: Mutating

To create new columns, we will use the mutate() function. Here we create a new column called income2 based on multiplying the original income column by 1000.

city %>% 
  mutate(
    income2 = income * 1000
    )

# A tibble: 32 x 6
   education income seniority gender     party       income2
       <dbl>  <dbl>     <dbl> <chr>      <chr>         <dbl>
 1         8   26.4         9 female     Independent   26430
 2         8   37.4         7 Not female Democrat      37449
 3        10   34.2        16 female     Independent   34182
 4        10   25.5         1 female     Republican    25479
 5        10   47.0        14 Not female Democrat      47034
 6        12   46.5        11 female     Democrat      46488
 7        12   52.5        16 female     Independent   52480
 8        12   37.7        14 Not female Democrat      37656
 9        12   50.3        24 Not female Democrat      50265
10        14   32.6         5 female     Independent   32631
# … with 22 more rows
…
You can “turn off” scientific notation by running the following syntax in your R session:

options(scipen = 99)

You will need to run this syntax every R session.

You can create multiple new columns within the same mutate() function. Simply include each new column as an argument. Below we again create income2, but we also additionally create cent_educ which computes the difference between each employee’s education level and the mean education level.

city %>% 
  mutate(
    income2 = income * 1000,
    cent_educ = education - mean(education)
    )

# A tibble: 32 x 7
   education income seniority gender     party       income2 cent_educ
       <dbl>  <dbl>     <dbl> <chr>      <chr>         <dbl>     <dbl>
 1         8   26.4         9 female     Independent   26430        -8
 2         8   37.4         7 Not female Democrat      37449        -8
 3        10   34.2        16 female     Independent   34182        -6
 4        10   25.5         1 female     Republican    25479        -6
 5        10   47.0        14 Not female Democrat      47034        -6
 6        12   46.5        11 female     Democrat      46488        -4
 7        12   52.5        16 female     Independent   52480        -4
 8        12   37.7        14 Not female Democrat      37656        -4
 9        12   50.3        24 Not female Democrat      50265        -4
10        14   32.6         5 female     Independent   32631        -2
# … with 22 more rows

Sorting the Data: Arranging

The arrange() function sorts the data based on the values within one or more specified columns. The data is ordered based on the column name provided in the argument(s). The syntax below sorts the rows in the city data frame from smallest to largest income.

city %>% 
  arrange(income)

# A tibble: 32 x 5
   education income seniority gender     party      
       <dbl>  <dbl>     <dbl> <chr>      <chr>      
 1        10   25.5         1 female     Republican 
 2         8   26.4         9 female     Independent
 3        14   32.6         5 female     Independent
 4        10   34.2        16 female     Independent
 5        15   37.3         8 female     Democrat   
 6         8   37.4         7 Not female Democrat   
 7        12   37.7        14 Not female Democrat   
 8        16   38.6        11 female     Independent
 9        12   46.5        11 female     Democrat   
10        10   47.0        14 Not female Democrat   
# … with 22 more rows

Providing the arrange() function multiple arguments sort initially by the column name given in first argument, and then by the columns given in subsequent arguments. Here the data are sorted first by gender (alphabetically since gender is a character string) and then by income (lowest to highest).

city %>% 
  arrange(gender, income)

# A tibble: 32 x 5
   education income seniority gender party      
       <dbl>  <dbl>     <dbl> <chr>  <chr>      
 1        10   25.5         1 female Republican 
 2         8   26.4         9 female Independent
 3        14   32.6         5 female Independent
 4        10   34.2        16 female Independent
 5        15   37.3         8 female Democrat   
 6        16   38.6        11 female Independent
 7        12   46.5        11 female Democrat   
 8        12   52.5        16 female Independent
 9        20   54.7        12 female Independent
10        18   54.8        20 female Republican 
# … with 22 more rows

Use the desc() function on a column name to sort the data in descending order. Here the data are sorted first by gender (alphabetically since gender is a character string) and then by income. Here the data are sorted first by gender (alphabetically) and then by income (highest to lowest).

city %>% 
  arrange(gender, desc(income))

# A tibble: 32 x 5
   education income seniority gender party      
       <dbl>  <dbl>     <dbl> <chr>  <chr>      
 1        21   71.2        26 female Democrat   
 2        18   62.5        16 female Republican 
 3        17   60.1        10 female Independent
 4        16   59.5        20 female Independent
 5        20   56.3        22 female Independent
 6        22   56.3         8 female Independent
 7        19   56.0        21 female Independent
 8        16   55.9        22 female Independent
 9        18   54.8        20 female Republican 
10        20   54.7        12 female Independent
# … with 22 more rows
…
